%!PS-Adobe-2.0 EPSF-2.0
%%Title: /home/ammon/usu/ObjectOriented/Homework4/SudokuSolver/PuzzleStateDiagram.dia
%%Creator: Dia v0.97.3
%%CreationDate: Tue Nov 22 16:45:10 2016
%%For: ammon
%%Orientation: Portrait
%%Magnification: 1.0000
%%BoundingBox: 0 0 616 400
%%BeginSetup
%%EndSetup
%%EndComments
%%BeginProlog
[ /.notdef /.notdef /.notdef /.notdef /.notdef /.notdef /.notdef /.notdef /.notdef /.notdef
/.notdef /.notdef /.notdef /.notdef /.notdef /.notdef /.notdef /.notdef /.notdef /.notdef
/.notdef /.notdef /.notdef /.notdef /.notdef /.notdef /.notdef /.notdef /.notdef /.notdef
/.notdef /.notdef /space /exclam /quotedbl /numbersign /dollar /percent /ampersand /quoteright
/parenleft /parenright /asterisk /plus /comma /hyphen /period /slash /zero /one
/two /three /four /five /six /seven /eight /nine /colon /semicolon
/less /equal /greater /question /at /A /B /C /D /E
/F /G /H /I /J /K /L /M /N /O
/P /Q /R /S /T /U /V /W /X /Y
/Z /bracketleft /backslash /bracketright /asciicircum /underscore /quoteleft /a /b /c
/d /e /f /g /h /i /j /k /l /m
/n /o /p /q /r /s /t /u /v /w
/x /y /z /braceleft /bar /braceright /asciitilde /.notdef /.notdef /.notdef
/.notdef /.notdef /.notdef /.notdef /.notdef /.notdef /.notdef /.notdef /.notdef /.notdef
/.notdef /.notdef /.notdef /.notdef /.notdef /.notdef /.notdef /.notdef /.notdef /.notdef
/.notdef /.notdef /.notdef /.notdef /.notdef /.notdef /.notdef /.notdef /.notdef /.notdef
/space /exclamdown /cent /sterling /currency /yen /brokenbar /section /dieresis /copyright
/ordfeminine /guillemotleft /logicalnot /hyphen /registered /macron /degree /plusminus /twosuperior /threesuperior
/acute /mu /paragraph /periodcentered /cedilla /onesuperior /ordmasculine /guillemotright /onequarter /onehalf
/threequarters /questiondown /Agrave /Aacute /Acircumflex /Atilde /Adieresis /Aring /AE /Ccedilla
/Egrave /Eacute /Ecircumflex /Edieresis /Igrave /Iacute /Icircumflex /Idieresis /Eth /Ntilde
/Ograve /Oacute /Ocircumflex /Otilde /Odieresis /multiply /Oslash /Ugrave /Uacute /Ucircumflex
/Udieresis /Yacute /Thorn /germandbls /agrave /aacute /acircumflex /atilde /adieresis /aring
/ae /ccedilla /egrave /eacute /ecircumflex /edieresis /igrave /iacute /icircumflex /idieresis
/eth /ntilde /ograve /oacute /ocircumflex /otilde /odieresis /divide /oslash /ugrave
/uacute /ucircumflex /udieresis /yacute /thorn /ydieresis] /isolatin1encoding exch def
/cp {closepath} bind def
/c {curveto} bind def
/f {fill} bind def
/a {arc} bind def
/ef {eofill} bind def
/ex {exch} bind def
/gr {grestore} bind def
/gs {gsave} bind def
/sa {save} bind def
/rs {restore} bind def
/l {lineto} bind def
/m {moveto} bind def
/rm {rmoveto} bind def
/n {newpath} bind def
/s {stroke} bind def
/sh {show} bind def
/slc {setlinecap} bind def
/slj {setlinejoin} bind def
/slw {setlinewidth} bind def
/srgb {setrgbcolor} bind def
/rot {rotate} bind def
/sc {scale} bind def
/sd {setdash} bind def
/ff {findfont} bind def
/sf {setfont} bind def
/scf {scalefont} bind def
/sw {stringwidth pop} bind def
/tr {translate} bind def

/ellipsedict 8 dict def
ellipsedict /mtrx matrix put
/ellipse
{ ellipsedict begin
   /endangle exch def
   /startangle exch def
   /yrad exch def
   /xrad exch def
   /y exch def
   /x exch def   /savematrix mtrx currentmatrix def
   x y tr xrad yrad sc
   0 0 1 startangle endangle arc
   savematrix setmatrix
   end
} def

/mergeprocs {
dup length
3 -1 roll
dup
length
dup
5 1 roll
3 -1 roll
add
array cvx
dup
3 -1 roll
0 exch
putinterval
dup
4 2 roll
putinterval
} bind def
/dpi_x 300 def
/dpi_y 300 def
/conicto {
    /to_y exch def
    /to_x exch def
    /conic_cntrl_y exch def
    /conic_cntrl_x exch def
    currentpoint
    /p0_y exch def
    /p0_x exch def
    /p1_x p0_x conic_cntrl_x p0_x sub 2 3 div mul add def
    /p1_y p0_y conic_cntrl_y p0_y sub 2 3 div mul add def
    /p2_x p1_x to_x p0_x sub 1 3 div mul add def
    /p2_y p1_y to_y p0_y sub 1 3 div mul add def
    p1_x p1_y p2_x p2_y to_x to_y curveto
} bind def
/start_ol { gsave 1.1 dpi_x div dup scale} bind def
/end_ol { closepath fill grestore } bind def
28.346000 -28.346000 scale
-10.550000 -19.600000 translate
%%EndProlog


0.100000 slw
[] 0 sd
0.000000 0.000000 0.000000 srgb
n 13.750000 8.550000 0.500000 0.500000 0 360 ellipse f
0.100000 slw
[] 0 sd
1.000000 1.000000 1.000000 srgb
n 21.400000 8.700000 m 21.400000 10.500000 l 24.400000 10.500000 l 24.400000 8.700000 l f
n 21.400000 9.200000 m 21.400000 9.200000 0.500000 0.500000 180.000000 270.000000 ellipse f
n 24.400000 9.200000 m 24.400000 9.200000 0.500000 0.500000 270.000000 360.000000 ellipse f
n 20.900000 9.200000 m 20.900000 10.000000 l 24.900000 10.000000 l 24.900000 9.200000 l f
n 21.400000 10.000000 m 21.400000 10.000000 0.500000 0.500000 90.000000 180.000000 ellipse f
n 24.400000 10.000000 m 24.400000 10.000000 0.500000 0.500000 0.000000 90.000000 ellipse f
0.000000 0.000000 0.000000 srgb
n 21.400000 8.700000 m 24.400000 8.700000 l s
n 21.400000 10.500000 m 24.400000 10.500000 l s
n 21.400000 9.200000 0.500000 0.500000 180.000000 270.000000 ellipse s
n 24.400000 9.200000 0.500000 0.500000 270.000000 360.000000 ellipse s
n 20.900000 9.200000 m 20.900000 10.000000 l s
n 24.900000 9.200000 m 24.900000 10.000000 l s
n 21.400000 10.000000 0.500000 0.500000 90.000000 180.000000 ellipse s
n 24.400000 10.000000 0.500000 0.500000 0.000000 90.000000 ellipse s
gsave 21.421250 9.795000 translate 0.035278 -0.035278 scale
start_ol
448 3520 moveto
960 3520 lineto
960 1383 lineto
960 817 1156 568 conicto
1353 320 1793 320 conicto
2231 320 2427 568 conicto
2624 817 2624 1383 conicto
2624 3520 lineto
3136 3520 lineto
3136 1324 lineto
3136 637 2796 286 conicto
2456 -64 1793 -64 conicto
1128 -64 788 286 conicto
448 637 448 1324 conicto
448 3520 lineto
end_ol grestore 
gsave 21.888306 9.795000 translate 0.035278 -0.035278 scale
start_ol
2688 1646 moveto
2688 0 lineto
2240 0 lineto
2240 1632 lineto
2240 2001 2093 2184 conicto
1947 2368 1654 2368 conicto
1302 2368 1099 2146 conicto
896 1925 896 1542 conicto
896 0 lineto
448 0 lineto
448 2688 lineto
896 2688 lineto
896 2304 lineto
1053 2529 1266 2640 conicto
1479 2752 1757 2752 conicto
2217 2752 2452 2471 conicto
2688 2191 2688 1646 conicto
end_ol grestore 
gsave 22.292920 9.795000 translate 0.035278 -0.035278 scale
start_ol
2112 2560 moveto
2112 2176 lineto
1932 2272 1738 2320 conicto
1544 2368 1336 2368 conicto
1020 2368 862 2269 conicto
704 2170 704 1972 conicto
704 1821 814 1735 conicto
925 1649 1260 1571 conicto
1403 1538 lineto
1857 1438 2048 1255 conicto
2240 1072 2240 744 conicto
2240 371 1954 153 conicto
1668 -64 1167 -64 conicto
958 -64 732 -16 conicto
506 32 256 128 conicto
256 576 lineto
491 448 719 384 conicto
947 320 1170 320 conicto
1470 320 1631 425 conicto
1792 531 1792 722 conicto
1792 900 1678 994 conicto
1564 1089 1177 1177 conicto
1032 1212 lineto
621 1298 438 1476 conicto
256 1654 256 1964 conicto
256 2341 520 2546 conicto
784 2752 1269 2752 conicto
1509 2752 1721 2704 conicto
1933 2656 2112 2560 conicto
end_ol grestore 
gsave 22.625104 9.795000 translate 0.035278 -0.035278 scale
start_ol
1473 2368 moveto
1117 2368 910 2094 conicto
704 1820 704 1344 conicto
704 868 909 594 conicto
1115 320 1473 320 conicto
1827 320 2033 595 conicto
2240 870 2240 1344 conicto
2240 1816 2033 2092 conicto
1827 2368 1473 2368 conicto
1472 2752 moveto
2040 2752 2364 2378 conicto
2688 2005 2688 1344 conicto
2688 685 2364 310 conicto
2040 -64 1472 -64 conicto
902 -64 579 310 conicto
256 685 256 1344 conicto
256 2005 579 2378 conicto
902 2752 1472 2752 conicto
end_ol grestore 
gsave 23.017233 9.795000 translate 0.035278 -0.035278 scale
start_ol
448 3712 moveto
896 3712 lineto
896 0 lineto
448 0 lineto
448 3712 lineto
end_ol grestore 
gsave 23.194562 9.795000 translate 0.035278 -0.035278 scale
start_ol
128 2688 moveto
586 2688 lineto
1408 432 lineto
2230 2688 lineto
2688 2688 lineto
1702 0 lineto
1114 0 lineto
128 2688 lineto
end_ol grestore 
gsave 23.574206 9.795000 translate 0.035278 -0.035278 scale
start_ol
2752 1480 moveto
2752 1280 lineto
704 1280 lineto
733 811 978 565 conicto
1223 320 1660 320 conicto
1914 320 2152 384 conicto
2390 448 2624 576 conicto
2624 192 lineto
2388 67 2140 1 conicto
1893 -64 1639 -64 conicto
1001 -64 628 309 conicto
256 683 256 1320 conicto
256 1979 613 2365 conicto
970 2752 1576 2752 conicto
2120 2752 2436 2410 conicto
2752 2068 2752 1480 conicto
2304 1600 moveto
2299 1950 2099 2159 conicto
1900 2368 1572 2368 conicto
1200 2368 976 2166 conicto
753 1964 719 1597 conicto
2304 1600 lineto
end_ol grestore 
gsave 23.968832 9.795000 translate 0.035278 -0.035278 scale
start_ol
2176 2304 moveto
2176 3712 lineto
2624 3712 lineto
2624 0 lineto
2176 0 lineto
2176 384 lineto
2040 157 1832 46 conicto
1624 -64 1332 -64 conicto
855 -64 555 324 conicto
256 712 256 1344 conicto
256 1976 555 2364 conicto
855 2752 1332 2752 conicto
1624 2752 1832 2641 conicto
2040 2531 2176 2304 conicto
704 1344 moveto
704 865 900 592 conicto
1096 320 1439 320 conicto
1782 320 1979 592 conicto
2176 865 2176 1344 conicto
2176 1823 1979 2095 conicto
1782 2368 1439 2368 conicto
1096 2368 900 2095 conicto
704 1823 704 1344 conicto
end_ol grestore 
0.100000 slw
[] 0 sd
1.000000 1.000000 1.000000 srgb
n 11.100000 15.400000 m 11.100000 17.200000 l 14.627500 17.200000 l 14.627500 15.400000 l f
n 11.100000 15.900000 m 11.100000 15.900000 0.500000 0.500000 180.000000 270.000000 ellipse f
n 14.627500 15.900000 m 14.627500 15.900000 0.500000 0.500000 270.000000 360.000000 ellipse f
n 10.600000 15.900000 m 10.600000 16.700000 l 15.127500 16.700000 l 15.127500 15.900000 l f
n 11.100000 16.700000 m 11.100000 16.700000 0.500000 0.500000 90.000000 180.000000 ellipse f
n 14.627500 16.700000 m 14.627500 16.700000 0.500000 0.500000 0.000000 90.000000 ellipse f
0.000000 0.000000 0.000000 srgb
n 11.100000 15.400000 m 14.627500 15.400000 l s
n 11.100000 17.200000 m 14.627500 17.200000 l s
n 11.100000 15.900000 0.500000 0.500000 180.000000 270.000000 ellipse s
n 14.627500 15.900000 0.500000 0.500000 270.000000 360.000000 ellipse s
n 10.600000 15.900000 m 10.600000 16.700000 l s
n 15.127500 15.900000 m 15.127500 16.700000 l s
n 11.100000 16.700000 0.500000 0.500000 90.000000 180.000000 ellipse s
n 14.627500 16.700000 0.500000 0.500000 0.000000 90.000000 ellipse s
gsave 11.100000 16.495000 translate 0.035278 -0.035278 scale
start_ol
448 3520 moveto
960 3520 lineto
960 1383 lineto
960 817 1156 568 conicto
1353 320 1793 320 conicto
2231 320 2427 568 conicto
2624 817 2624 1383 conicto
2624 3520 lineto
3136 3520 lineto
3136 1324 lineto
3136 637 2796 286 conicto
2456 -64 1793 -64 conicto
1128 -64 788 286 conicto
448 637 448 1324 conicto
448 3520 lineto
end_ol grestore 
gsave 11.567056 16.495000 translate 0.035278 -0.035278 scale
start_ol
2688 1646 moveto
2688 0 lineto
2240 0 lineto
2240 1632 lineto
2240 2001 2093 2184 conicto
1947 2368 1654 2368 conicto
1302 2368 1099 2146 conicto
896 1925 896 1542 conicto
896 0 lineto
448 0 lineto
448 2688 lineto
896 2688 lineto
896 2304 lineto
1053 2529 1266 2640 conicto
1479 2752 1757 2752 conicto
2217 2752 2452 2471 conicto
2688 2191 2688 1646 conicto
end_ol grestore 
gsave 11.971670 16.495000 translate 0.035278 -0.035278 scale
start_ol
2112 2560 moveto
2112 2176 lineto
1932 2272 1738 2320 conicto
1544 2368 1336 2368 conicto
1020 2368 862 2269 conicto
704 2170 704 1972 conicto
704 1821 814 1735 conicto
925 1649 1260 1571 conicto
1403 1538 lineto
1857 1438 2048 1255 conicto
2240 1072 2240 744 conicto
2240 371 1954 153 conicto
1668 -64 1167 -64 conicto
958 -64 732 -16 conicto
506 32 256 128 conicto
256 576 lineto
491 448 719 384 conicto
947 320 1170 320 conicto
1470 320 1631 425 conicto
1792 531 1792 722 conicto
1792 900 1678 994 conicto
1564 1089 1177 1177 conicto
1032 1212 lineto
621 1298 438 1476 conicto
256 1654 256 1964 conicto
256 2341 520 2546 conicto
784 2752 1269 2752 conicto
1509 2752 1721 2704 conicto
1933 2656 2112 2560 conicto
end_ol grestore 
gsave 12.303854 16.495000 translate 0.035278 -0.035278 scale
start_ol
1473 2368 moveto
1117 2368 910 2094 conicto
704 1820 704 1344 conicto
704 868 909 594 conicto
1115 320 1473 320 conicto
1827 320 2033 595 conicto
2240 870 2240 1344 conicto
2240 1816 2033 2092 conicto
1827 2368 1473 2368 conicto
1472 2752 moveto
2040 2752 2364 2378 conicto
2688 2005 2688 1344 conicto
2688 685 2364 310 conicto
2040 -64 1472 -64 conicto
902 -64 579 310 conicto
256 685 256 1344 conicto
256 2005 579 2378 conicto
902 2752 1472 2752 conicto
end_ol grestore 
gsave 12.695983 16.495000 translate 0.035278 -0.035278 scale
start_ol
448 3712 moveto
896 3712 lineto
896 0 lineto
448 0 lineto
448 3712 lineto
end_ol grestore 
gsave 12.873312 16.495000 translate 0.035278 -0.035278 scale
start_ol
128 2688 moveto
586 2688 lineto
1408 432 lineto
2230 2688 lineto
2688 2688 lineto
1702 0 lineto
1114 0 lineto
128 2688 lineto
end_ol grestore 
gsave 13.252956 16.495000 translate 0.035278 -0.035278 scale
start_ol
1622 1344 moveto
1104 1344 904 1225 conicto
704 1106 704 818 conicto
704 589 854 454 conicto
1004 320 1262 320 conicto
1618 320 1833 572 conicto
2048 825 2048 1244 conicto
2048 1344 lineto
1622 1344 lineto
2496 1513 moveto
2496 0 lineto
2048 0 lineto
2048 384 lineto
1900 154 1679 45 conicto
1458 -64 1138 -64 conicto
733 -64 494 162 conicto
256 389 256 769 conicto
256 1213 555 1438 conicto
854 1664 1448 1664 conicto
2048 1664 lineto
2048 1712 lineto
2048 2025 1851 2196 conicto
1655 2368 1300 2368 conicto
1074 2368 860 2320 conicto
646 2272 448 2176 conicto
448 2560 lineto
687 2656 912 2704 conicto
1138 2752 1351 2752 conicto
1927 2752 2211 2444 conicto
2496 2137 2496 1513 conicto
end_ol grestore 
gsave 13.645085 16.495000 translate 0.035278 -0.035278 scale
start_ol
2368 1344 moveto
2368 1823 2171 2095 conicto
1975 2368 1632 2368 conicto
1289 2368 1092 2095 conicto
896 1823 896 1344 conicto
896 865 1092 592 conicto
1289 320 1632 320 conicto
1975 320 2171 592 conicto
2368 865 2368 1344 conicto
896 2304 moveto
1032 2531 1240 2641 conicto
1448 2752 1737 2752 conicto
2217 2752 2516 2364 conicto
2816 1976 2816 1344 conicto
2816 712 2516 324 conicto
2217 -64 1737 -64 conicto
1448 -64 1240 46 conicto
1032 157 896 384 conicto
896 0 lineto
448 0 lineto
448 3712 lineto
896 3712 lineto
896 2304 lineto
end_ol grestore 
gsave 14.052204 16.495000 translate 0.035278 -0.035278 scale
start_ol
448 3712 moveto
896 3712 lineto
896 0 lineto
448 0 lineto
448 3712 lineto
end_ol grestore 
gsave 14.229533 16.495000 translate 0.035278 -0.035278 scale
start_ol
2752 1480 moveto
2752 1280 lineto
704 1280 lineto
733 811 978 565 conicto
1223 320 1660 320 conicto
1914 320 2152 384 conicto
2390 448 2624 576 conicto
2624 192 lineto
2388 67 2140 1 conicto
1893 -64 1639 -64 conicto
1001 -64 628 309 conicto
256 683 256 1320 conicto
256 1979 613 2365 conicto
970 2752 1576 2752 conicto
2120 2752 2436 2410 conicto
2752 2068 2752 1480 conicto
2304 1600 moveto
2299 1950 2099 2159 conicto
1900 2368 1572 2368 conicto
1200 2368 976 2166 conicto
753 1964 719 1597 conicto
2304 1600 lineto
end_ol grestore 
0.100000 slw
0 slc
[] 0 sd
n 14.300269 8.550000 m 17.600134 8.550000 l 17.600134 9.600000 l 20.676393 9.600000 l s
0.100000 slw
[] 0 sd
0 slj
0 slc
n 20.288197 9.850000 m 20.788197 9.600000 l 20.288197 9.350000 l s
0.100000 slw
0 slc
[] 0 sd
n 24.900000 9.600000 m 28.350000 9.600000 l 28.350000 6.450000 l 22.900000 6.450000 l 22.900000 8.427394 l s
0.100000 slw
[] 0 sd
0 slj
0 slc
n 22.650000 8.039198 m 22.900000 8.539198 l 23.150000 8.039198 l s
gsave 25.772500 6.100230 translate 0.035278 -0.035278 scale
start_ol
2368 2560 moveto
2368 2176 lineto
2180 2272 1991 2320 conicto
1803 2368 1611 2368 conicto
1180 2368 942 2099 conicto
704 1830 704 1344 conicto
704 858 942 589 conicto
1180 320 1611 320 conicto
1803 320 1991 368 conicto
2180 416 2368 512 conicto
2368 128 lineto
2184 32 1987 -16 conicto
1791 -64 1569 -64 conicto
966 -64 611 316 conicto
256 697 256 1344 conicto
256 2000 615 2376 conicto
974 2752 1598 2752 conicto
1801 2752 1994 2704 conicto
2187 2656 2368 2560 conicto
end_ol grestore 
gsave 26.124669 6.100230 translate 0.035278 -0.035278 scale
start_ol
2752 1480 moveto
2752 1280 lineto
704 1280 lineto
733 811 978 565 conicto
1223 320 1660 320 conicto
1914 320 2152 384 conicto
2390 448 2624 576 conicto
2624 192 lineto
2388 67 2140 1 conicto
1893 -64 1639 -64 conicto
1001 -64 628 309 conicto
256 683 256 1320 conicto
256 1979 613 2365 conicto
970 2752 1576 2752 conicto
2120 2752 2436 2410 conicto
2752 2068 2752 1480 conicto
2304 1600 moveto
2299 1950 2099 2159 conicto
1900 2368 1572 2368 conicto
1200 2368 976 2166 conicto
753 1964 719 1597 conicto
2304 1600 lineto
end_ol grestore 
gsave 26.519295 6.100230 translate 0.035278 -0.035278 scale
start_ol
448 3712 moveto
896 3712 lineto
896 0 lineto
448 0 lineto
448 3712 lineto
end_ol grestore 
gsave 26.696623 6.100230 translate 0.035278 -0.035278 scale
start_ol
448 3712 moveto
896 3712 lineto
896 0 lineto
448 0 lineto
448 3712 lineto
end_ol grestore 
gsave 26.873952 6.100230 translate 0.035278 -0.035278 scale
start_ol
2624 3392 moveto
2624 2944 lineto
2352 3073 2111 3136 conicto
1870 3200 1645 3200 conicto
1255 3200 1043 3052 conicto
832 2904 832 2631 conicto
832 2402 969 2285 conicto
1107 2169 1491 2097 conicto
1773 2039 lineto
2308 1937 2562 1678 conicto
2816 1420 2816 986 conicto
2816 469 2468 202 conicto
2121 -64 1450 -64 conicto
1197 -64 911 0 conicto
626 65 320 192 conicto
320 704 lineto
613 513 893 416 conicto
1174 320 1445 320 conicto
1857 320 2080 485 conicto
2304 650 2304 955 conicto
2304 1221 2148 1371 conicto
1992 1522 1636 1597 conicto
1352 1652 lineto
807 1756 563 1978 conicto
320 2201 320 2597 conicto
320 3056 654 3320 conicto
989 3584 1576 3584 conicto
1828 3584 2089 3536 conicto
2351 3488 2624 3392 conicto
end_ol grestore 
gsave 27.281071 6.100230 translate 0.035278 -0.035278 scale
start_ol
2752 1480 moveto
2752 1280 lineto
704 1280 lineto
733 811 978 565 conicto
1223 320 1660 320 conicto
1914 320 2152 384 conicto
2390 448 2624 576 conicto
2624 192 lineto
2388 67 2140 1 conicto
1893 -64 1639 -64 conicto
1001 -64 628 309 conicto
256 683 256 1320 conicto
256 1979 613 2365 conicto
970 2752 1576 2752 conicto
2120 2752 2436 2410 conicto
2752 2068 2752 1480 conicto
2304 1600 moveto
2299 1950 2099 2159 conicto
1900 2368 1572 2368 conicto
1200 2368 976 2166 conicto
753 1964 719 1597 conicto
2304 1600 lineto
end_ol grestore 
gsave 27.675698 6.100230 translate 0.035278 -0.035278 scale
start_ol
896 3456 moveto
896 2688 lineto
1792 2688 lineto
1792 2368 lineto
896 2368 lineto
896 902 lineto
896 572 984 478 conicto
1073 384 1345 384 conicto
1792 384 lineto
1792 0 lineto
1345 0 lineto
836 0 642 194 conicto
448 389 448 902 conicto
448 2368 lineto
128 2368 lineto
128 2688 lineto
448 2688 lineto
448 3456 lineto
896 3456 lineto
end_ol grestore 
0.100000 slw
[] 0 sd
1.000000 1.000000 1.000000 srgb
n 28.700000 14.750000 m 28.700000 16.550000 l 31.700000 16.550000 l 31.700000 14.750000 l f
n 28.700000 15.250000 m 28.700000 15.250000 0.500000 0.500000 180.000000 270.000000 ellipse f
n 31.700000 15.250000 m 31.700000 15.250000 0.500000 0.500000 270.000000 360.000000 ellipse f
n 28.200000 15.250000 m 28.200000 16.050000 l 32.200000 16.050000 l 32.200000 15.250000 l f
n 28.700000 16.050000 m 28.700000 16.050000 0.500000 0.500000 90.000000 180.000000 ellipse f
n 31.700000 16.050000 m 31.700000 16.050000 0.500000 0.500000 0.000000 90.000000 ellipse f
0.000000 0.000000 0.000000 srgb
n 28.700000 14.750000 m 31.700000 14.750000 l s
n 28.700000 16.550000 m 31.700000 16.550000 l s
n 28.700000 15.250000 0.500000 0.500000 180.000000 270.000000 ellipse s
n 31.700000 15.250000 0.500000 0.500000 270.000000 360.000000 ellipse s
n 28.200000 15.250000 m 28.200000 16.050000 l s
n 32.200000 15.250000 m 32.200000 16.050000 l s
n 28.700000 16.050000 0.500000 0.500000 90.000000 180.000000 ellipse s
n 31.700000 16.050000 0.500000 0.500000 0.000000 90.000000 ellipse s
gsave 29.120000 15.845000 translate 0.035278 -0.035278 scale
start_ol
2624 3392 moveto
2624 2944 lineto
2352 3073 2111 3136 conicto
1870 3200 1645 3200 conicto
1255 3200 1043 3052 conicto
832 2904 832 2631 conicto
832 2402 969 2285 conicto
1107 2169 1491 2097 conicto
1773 2039 lineto
2308 1937 2562 1678 conicto
2816 1420 2816 986 conicto
2816 469 2468 202 conicto
2121 -64 1450 -64 conicto
1197 -64 911 0 conicto
626 65 320 192 conicto
320 704 lineto
613 513 893 416 conicto
1174 320 1445 320 conicto
1857 320 2080 485 conicto
2304 650 2304 955 conicto
2304 1221 2148 1371 conicto
1992 1522 1636 1597 conicto
1352 1652 lineto
807 1756 563 1978 conicto
320 2201 320 2597 conicto
320 3056 654 3320 conicto
989 3584 1576 3584 conicto
1828 3584 2089 3536 conicto
2351 3488 2624 3392 conicto
end_ol grestore 
gsave 29.527119 15.845000 translate 0.035278 -0.035278 scale
start_ol
1473 2368 moveto
1117 2368 910 2094 conicto
704 1820 704 1344 conicto
704 868 909 594 conicto
1115 320 1473 320 conicto
1827 320 2033 595 conicto
2240 870 2240 1344 conicto
2240 1816 2033 2092 conicto
1827 2368 1473 2368 conicto
1472 2752 moveto
2040 2752 2364 2378 conicto
2688 2005 2688 1344 conicto
2688 685 2364 310 conicto
2040 -64 1472 -64 conicto
902 -64 579 310 conicto
256 685 256 1344 conicto
256 2005 579 2378 conicto
902 2752 1472 2752 conicto
end_ol grestore 
gsave 29.919248 15.845000 translate 0.035278 -0.035278 scale
start_ol
448 3712 moveto
896 3712 lineto
896 0 lineto
448 0 lineto
448 3712 lineto
end_ol grestore 
gsave 30.096577 15.845000 translate 0.035278 -0.035278 scale
start_ol
128 2688 moveto
586 2688 lineto
1408 432 lineto
2230 2688 lineto
2688 2688 lineto
1702 0 lineto
1114 0 lineto
128 2688 lineto
end_ol grestore 
gsave 30.476221 15.845000 translate 0.035278 -0.035278 scale
start_ol
2752 1480 moveto
2752 1280 lineto
704 1280 lineto
733 811 978 565 conicto
1223 320 1660 320 conicto
1914 320 2152 384 conicto
2390 448 2624 576 conicto
2624 192 lineto
2388 67 2140 1 conicto
1893 -64 1639 -64 conicto
1001 -64 628 309 conicto
256 683 256 1320 conicto
256 1979 613 2365 conicto
970 2752 1576 2752 conicto
2120 2752 2436 2410 conicto
2752 2068 2752 1480 conicto
2304 1600 moveto
2299 1950 2099 2159 conicto
1900 2368 1572 2368 conicto
1200 2368 976 2166 conicto
753 1964 719 1597 conicto
2304 1600 lineto
end_ol grestore 
gsave 30.870847 15.845000 translate 0.035278 -0.035278 scale
start_ol
2176 2304 moveto
2176 3712 lineto
2624 3712 lineto
2624 0 lineto
2176 0 lineto
2176 384 lineto
2040 157 1832 46 conicto
1624 -64 1332 -64 conicto
855 -64 555 324 conicto
256 712 256 1344 conicto
256 1976 555 2364 conicto
855 2752 1332 2752 conicto
1624 2752 1832 2641 conicto
2040 2531 2176 2304 conicto
704 1344 moveto
704 865 900 592 conicto
1096 320 1439 320 conicto
1782 320 1979 592 conicto
2176 865 2176 1344 conicto
2176 1823 1979 2095 conicto
1782 2368 1439 2368 conicto
1096 2368 900 2095 conicto
704 1823 704 1344 conicto
end_ol grestore 
0.100000 slw
0 slc
[] 0 sd
n 22.900000 10.550079 m 22.900000 14.050000 l 30.200000 14.050000 l 30.200000 14.526393 l s
0.100000 slw
[] 0 sd
0 slj
0 slc
n 29.950000 14.138197 m 30.200000 14.638197 l 30.450000 14.138197 l s
gsave 24.135000 13.550000 translate 0.035278 -0.035278 scale
start_ol
448 3712 moveto
1472 3712 lineto
1472 3392 lineto
896 3392 lineto
896 -320 lineto
1472 -320 lineto
1472 -640 lineto
448 -640 lineto
448 3712 lineto
end_ol grestore 
gsave 24.384767 13.550000 translate 0.035278 -0.035278 scale
start_ol
1622 1344 moveto
1104 1344 904 1225 conicto
704 1106 704 818 conicto
704 589 854 454 conicto
1004 320 1262 320 conicto
1618 320 1833 572 conicto
2048 825 2048 1244 conicto
2048 1344 lineto
1622 1344 lineto
2496 1513 moveto
2496 0 lineto
2048 0 lineto
2048 384 lineto
1900 154 1679 45 conicto
1458 -64 1138 -64 conicto
733 -64 494 162 conicto
256 389 256 769 conicto
256 1213 555 1438 conicto
854 1664 1448 1664 conicto
2048 1664 lineto
2048 1712 lineto
2048 2025 1851 2196 conicto
1655 2368 1300 2368 conicto
1074 2368 860 2320 conicto
646 2272 448 2176 conicto
448 2560 lineto
687 2656 912 2704 conicto
1138 2752 1351 2752 conicto
1927 2752 2211 2444 conicto
2496 2137 2496 1513 conicto
end_ol grestore 
gsave 24.776896 13.550000 translate 0.035278 -0.035278 scale
start_ol
448 3712 moveto
896 3712 lineto
896 0 lineto
448 0 lineto
448 3712 lineto
end_ol grestore 
gsave 24.954224 13.550000 translate 0.035278 -0.035278 scale
start_ol
448 3712 moveto
896 3712 lineto
896 0 lineto
448 0 lineto
448 3712 lineto
end_ol grestore 
gsave 25.131553 13.550000 translate 0.035278 -0.035278 scale
start_ol
3136 3264 moveto
3136 2752 lineto
2892 2977 2616 3088 conicto
2340 3200 2030 3200 conicto
1418 3200 1093 2829 conicto
768 2459 768 1759 conicto
768 1061 1093 690 conicto
1418 320 2030 320 conicto
2340 320 2616 431 conicto
2892 543 3136 768 conicto
3136 256 lineto
2882 96 2599 16 conicto
2316 -64 2000 -64 conicto
1189 -64 722 424 conicto
256 913 256 1759 conicto
256 2607 722 3095 conicto
1189 3584 2000 3584 conicto
2320 3584 2603 3504 conicto
2887 3424 3136 3264 conicto
end_ol grestore 
gsave 25.578633 13.550000 translate 0.035278 -0.035278 scale
start_ol
2752 1480 moveto
2752 1280 lineto
704 1280 lineto
733 811 978 565 conicto
1223 320 1660 320 conicto
1914 320 2152 384 conicto
2390 448 2624 576 conicto
2624 192 lineto
2388 67 2140 1 conicto
1893 -64 1639 -64 conicto
1001 -64 628 309 conicto
256 683 256 1320 conicto
256 1979 613 2365 conicto
970 2752 1576 2752 conicto
2120 2752 2436 2410 conicto
2752 2068 2752 1480 conicto
2304 1600 moveto
2299 1950 2099 2159 conicto
1900 2368 1572 2368 conicto
1200 2368 976 2166 conicto
753 1964 719 1597 conicto
2304 1600 lineto
end_ol grestore 
gsave 25.973259 13.550000 translate 0.035278 -0.035278 scale
start_ol
448 3712 moveto
896 3712 lineto
896 0 lineto
448 0 lineto
448 3712 lineto
end_ol grestore 
gsave 26.150588 13.550000 translate 0.035278 -0.035278 scale
start_ol
448 3712 moveto
896 3712 lineto
896 0 lineto
448 0 lineto
448 3712 lineto
end_ol grestore 
gsave 26.327916 13.550000 translate 0.035278 -0.035278 scale
start_ol
2112 2560 moveto
2112 2176 lineto
1932 2272 1738 2320 conicto
1544 2368 1336 2368 conicto
1020 2368 862 2269 conicto
704 2170 704 1972 conicto
704 1821 814 1735 conicto
925 1649 1260 1571 conicto
1403 1538 lineto
1857 1438 2048 1255 conicto
2240 1072 2240 744 conicto
2240 371 1954 153 conicto
1668 -64 1167 -64 conicto
958 -64 732 -16 conicto
506 32 256 128 conicto
256 576 lineto
491 448 719 384 conicto
947 320 1170 320 conicto
1470 320 1631 425 conicto
1792 531 1792 722 conicto
1792 900 1678 994 conicto
1564 1089 1177 1177 conicto
1032 1212 lineto
621 1298 438 1476 conicto
256 1654 256 1964 conicto
256 2341 520 2546 conicto
784 2752 1269 2752 conicto
1509 2752 1721 2704 conicto
1933 2656 2112 2560 conicto
end_ol grestore 
gsave 26.660101 13.550000 translate 0.035278 -0.035278 scale
start_ol
2624 3392 moveto
2624 2944 lineto
2352 3073 2111 3136 conicto
1870 3200 1645 3200 conicto
1255 3200 1043 3052 conicto
832 2904 832 2631 conicto
832 2402 969 2285 conicto
1107 2169 1491 2097 conicto
1773 2039 lineto
2308 1937 2562 1678 conicto
2816 1420 2816 986 conicto
2816 469 2468 202 conicto
2121 -64 1450 -64 conicto
1197 -64 911 0 conicto
626 65 320 192 conicto
320 704 lineto
613 513 893 416 conicto
1174 320 1445 320 conicto
1857 320 2080 485 conicto
2304 650 2304 955 conicto
2304 1221 2148 1371 conicto
1992 1522 1636 1597 conicto
1352 1652 lineto
807 1756 563 1978 conicto
320 2201 320 2597 conicto
320 3056 654 3320 conicto
989 3584 1576 3584 conicto
1828 3584 2089 3536 conicto
2351 3488 2624 3392 conicto
end_ol grestore 
gsave 27.067220 13.550000 translate 0.035278 -0.035278 scale
start_ol
2752 1480 moveto
2752 1280 lineto
704 1280 lineto
733 811 978 565 conicto
1223 320 1660 320 conicto
1914 320 2152 384 conicto
2390 448 2624 576 conicto
2624 192 lineto
2388 67 2140 1 conicto
1893 -64 1639 -64 conicto
1001 -64 628 309 conicto
256 683 256 1320 conicto
256 1979 613 2365 conicto
970 2752 1576 2752 conicto
2120 2752 2436 2410 conicto
2752 2068 2752 1480 conicto
2304 1600 moveto
2299 1950 2099 2159 conicto
1900 2368 1572 2368 conicto
1200 2368 976 2166 conicto
753 1964 719 1597 conicto
2304 1600 lineto
end_ol grestore 
gsave 27.461846 13.550000 translate 0.035278 -0.035278 scale
start_ol
896 3456 moveto
896 2688 lineto
1792 2688 lineto
1792 2368 lineto
896 2368 lineto
896 902 lineto
896 572 984 478 conicto
1073 384 1345 384 conicto
1792 384 lineto
1792 0 lineto
1345 0 lineto
836 0 642 194 conicto
448 389 448 902 conicto
448 2368 lineto
128 2368 lineto
128 2688 lineto
448 2688 lineto
448 3456 lineto
896 3456 lineto
end_ol grestore 
gsave 27.711613 13.550000 translate 0.035278 -0.035278 scale
start_ol
1472 3712 moveto
1472 -640 lineto
448 -640 lineto
448 -320 lineto
1024 -320 lineto
1024 3392 lineto
448 3392 lineto
448 3712 lineto
1472 3712 lineto
end_ol grestore 
gsave 24.322500 12.650000 translate 0.035278 -0.035278 scale
start_ol
2368 2560 moveto
2368 2176 lineto
2180 2272 1991 2320 conicto
1803 2368 1611 2368 conicto
1180 2368 942 2099 conicto
704 1830 704 1344 conicto
704 858 942 589 conicto
1180 320 1611 320 conicto
1803 320 1991 368 conicto
2180 416 2368 512 conicto
2368 128 lineto
2184 32 1987 -16 conicto
1791 -64 1569 -64 conicto
966 -64 611 316 conicto
256 697 256 1344 conicto
256 2000 615 2376 conicto
974 2752 1598 2752 conicto
1801 2752 1994 2704 conicto
2187 2656 2368 2560 conicto
end_ol grestore 
gsave 24.674669 12.650000 translate 0.035278 -0.035278 scale
start_ol
2752 1480 moveto
2752 1280 lineto
704 1280 lineto
733 811 978 565 conicto
1223 320 1660 320 conicto
1914 320 2152 384 conicto
2390 448 2624 576 conicto
2624 192 lineto
2388 67 2140 1 conicto
1893 -64 1639 -64 conicto
1001 -64 628 309 conicto
256 683 256 1320 conicto
256 1979 613 2365 conicto
970 2752 1576 2752 conicto
2120 2752 2436 2410 conicto
2752 2068 2752 1480 conicto
2304 1600 moveto
2299 1950 2099 2159 conicto
1900 2368 1572 2368 conicto
1200 2368 976 2166 conicto
753 1964 719 1597 conicto
2304 1600 lineto
end_ol grestore 
gsave 25.069295 12.650000 translate 0.035278 -0.035278 scale
start_ol
448 3712 moveto
896 3712 lineto
896 0 lineto
448 0 lineto
448 3712 lineto
end_ol grestore 
gsave 25.246623 12.650000 translate 0.035278 -0.035278 scale
start_ol
448 3712 moveto
896 3712 lineto
896 0 lineto
448 0 lineto
448 3712 lineto
end_ol grestore 
gsave 25.423952 12.650000 translate 0.035278 -0.035278 scale
start_ol
2624 3392 moveto
2624 2944 lineto
2352 3073 2111 3136 conicto
1870 3200 1645 3200 conicto
1255 3200 1043 3052 conicto
832 2904 832 2631 conicto
832 2402 969 2285 conicto
1107 2169 1491 2097 conicto
1773 2039 lineto
2308 1937 2562 1678 conicto
2816 1420 2816 986 conicto
2816 469 2468 202 conicto
2121 -64 1450 -64 conicto
1197 -64 911 0 conicto
626 65 320 192 conicto
320 704 lineto
613 513 893 416 conicto
1174 320 1445 320 conicto
1857 320 2080 485 conicto
2304 650 2304 955 conicto
2304 1221 2148 1371 conicto
1992 1522 1636 1597 conicto
1352 1652 lineto
807 1756 563 1978 conicto
320 2201 320 2597 conicto
320 3056 654 3320 conicto
989 3584 1576 3584 conicto
1828 3584 2089 3536 conicto
2351 3488 2624 3392 conicto
end_ol grestore 
gsave 25.831071 12.650000 translate 0.035278 -0.035278 scale
start_ol
2752 1480 moveto
2752 1280 lineto
704 1280 lineto
733 811 978 565 conicto
1223 320 1660 320 conicto
1914 320 2152 384 conicto
2390 448 2624 576 conicto
2624 192 lineto
2388 67 2140 1 conicto
1893 -64 1639 -64 conicto
1001 -64 628 309 conicto
256 683 256 1320 conicto
256 1979 613 2365 conicto
970 2752 1576 2752 conicto
2120 2752 2436 2410 conicto
2752 2068 2752 1480 conicto
2304 1600 moveto
2299 1950 2099 2159 conicto
1900 2368 1572 2368 conicto
1200 2368 976 2166 conicto
753 1964 719 1597 conicto
2304 1600 lineto
end_ol grestore 
gsave 26.225698 12.650000 translate 0.035278 -0.035278 scale
start_ol
896 3456 moveto
896 2688 lineto
1792 2688 lineto
1792 2368 lineto
896 2368 lineto
896 902 lineto
896 572 984 478 conicto
1073 384 1345 384 conicto
1792 384 lineto
1792 0 lineto
1345 0 lineto
836 0 642 194 conicto
448 389 448 902 conicto
448 2368 lineto
128 2368 lineto
128 2688 lineto
448 2688 lineto
448 3456 lineto
896 3456 lineto
end_ol grestore 
0.100000 slw
0 slc
[] 0 sd
n 20.900000 10.500000 m 20.900000 12.950000 l 12.863750 12.950000 l 12.863750 15.176393 l s
0.100000 slw
[] 0 sd
0 slj
0 slc
n 12.613750 14.788197 m 12.863750 15.288197 l 13.113750 14.788197 l s
gsave 13.033775 12.350000 translate 0.035278 -0.035278 scale
start_ol
3136 3264 moveto
3136 2752 lineto
2892 2977 2616 3088 conicto
2340 3200 2030 3200 conicto
1418 3200 1093 2829 conicto
768 2459 768 1759 conicto
768 1061 1093 690 conicto
1418 320 2030 320 conicto
2340 320 2616 431 conicto
2892 543 3136 768 conicto
3136 256 lineto
2882 96 2599 16 conicto
2316 -64 2000 -64 conicto
1189 -64 722 424 conicto
256 913 256 1759 conicto
256 2607 722 3095 conicto
1189 3584 2000 3584 conicto
2320 3584 2603 3504 conicto
2887 3424 3136 3264 conicto
end_ol grestore 
gsave 13.480855 12.350000 translate 0.035278 -0.035278 scale
start_ol
2752 1480 moveto
2752 1280 lineto
704 1280 lineto
733 811 978 565 conicto
1223 320 1660 320 conicto
1914 320 2152 384 conicto
2390 448 2624 576 conicto
2624 192 lineto
2388 67 2140 1 conicto
1893 -64 1639 -64 conicto
1001 -64 628 309 conicto
256 683 256 1320 conicto
256 1979 613 2365 conicto
970 2752 1576 2752 conicto
2120 2752 2436 2410 conicto
2752 2068 2752 1480 conicto
2304 1600 moveto
2299 1950 2099 2159 conicto
1900 2368 1572 2368 conicto
1200 2368 976 2166 conicto
753 1964 719 1597 conicto
2304 1600 lineto
end_ol grestore 
gsave 13.875481 12.350000 translate 0.035278 -0.035278 scale
start_ol
448 3712 moveto
896 3712 lineto
896 0 lineto
448 0 lineto
448 3712 lineto
end_ol grestore 
gsave 14.052809 12.350000 translate 0.035278 -0.035278 scale
start_ol
448 3712 moveto
896 3712 lineto
896 0 lineto
448 0 lineto
448 3712 lineto
end_ol grestore 
gsave 14.230138 12.350000 translate 0.035278 -0.035278 scale
start_ol
192 3520 moveto
676 3520 lineto
1420 545 lineto
2162 3520 lineto
2700 3520 lineto
3444 545 lineto
4186 3520 lineto
4672 3520 lineto
3783 0 lineto
3181 0 lineto
2434 3056 lineto
1681 0 lineto
1079 0 lineto
192 3520 lineto
end_ol grestore 
gsave 14.847056 12.350000 translate 0.035278 -0.035278 scale
start_ol
448 2688 moveto
896 2688 lineto
896 0 lineto
448 0 lineto
448 2688 lineto
448 3712 moveto
896 3712 lineto
896 3136 lineto
448 3136 lineto
448 3712 lineto
end_ol grestore 
gsave 15.024384 12.350000 translate 0.035278 -0.035278 scale
start_ol
896 3456 moveto
896 2688 lineto
1792 2688 lineto
1792 2368 lineto
896 2368 lineto
896 902 lineto
896 572 984 478 conicto
1073 384 1345 384 conicto
1792 384 lineto
1792 0 lineto
1345 0 lineto
836 0 642 194 conicto
448 389 448 902 conicto
448 2368 lineto
128 2368 lineto
128 2688 lineto
448 2688 lineto
448 3456 lineto
896 3456 lineto
end_ol grestore 
gsave 15.274151 12.350000 translate 0.035278 -0.035278 scale
start_ol
2688 1646 moveto
2688 0 lineto
2240 0 lineto
2240 1632 lineto
2240 2001 2093 2184 conicto
1947 2368 1654 2368 conicto
1302 2368 1099 2146 conicto
896 1925 896 1542 conicto
896 0 lineto
448 0 lineto
448 3712 lineto
896 3712 lineto
896 2304 lineto
1053 2529 1266 2640 conicto
1479 2752 1757 2752 conicto
2217 2752 2452 2471 conicto
2688 2191 2688 1646 conicto
end_ol grestore 
gsave 15.678765 12.350000 translate 0.035278 -0.035278 scale
start_ol
448 3520 moveto
1131 3520 lineto
2624 575 lineto
2624 3520 lineto
3136 3520 lineto
3136 0 lineto
2453 0 lineto
960 2945 lineto
960 0 lineto
448 0 lineto
448 3520 lineto
end_ol grestore 
gsave 16.158314 12.350000 translate 0.035278 -0.035278 scale
start_ol
1473 2368 moveto
1117 2368 910 2094 conicto
704 1820 704 1344 conicto
704 868 909 594 conicto
1115 320 1473 320 conicto
1827 320 2033 595 conicto
2240 870 2240 1344 conicto
2240 1816 2033 2092 conicto
1827 2368 1473 2368 conicto
1472 2752 moveto
2040 2752 2364 2378 conicto
2688 2005 2688 1344 conicto
2688 685 2364 310 conicto
2040 -64 1472 -64 conicto
902 -64 579 310 conicto
256 685 256 1344 conicto
256 2005 579 2378 conicto
902 2752 1472 2752 conicto
end_ol grestore 
gsave 16.550443 12.350000 translate 0.035278 -0.035278 scale
start_ol
1424 0 moveto
64 3520 lineto
567 3520 lineto
1696 556 lineto
2827 3520 lineto
3328 3520 lineto
1970 0 lineto
1424 0 lineto
end_ol grestore 
gsave 16.937578 12.350000 translate 0.035278 -0.035278 scale
start_ol
1622 1344 moveto
1104 1344 904 1225 conicto
704 1106 704 818 conicto
704 589 854 454 conicto
1004 320 1262 320 conicto
1618 320 1833 572 conicto
2048 825 2048 1244 conicto
2048 1344 lineto
1622 1344 lineto
2496 1513 moveto
2496 0 lineto
2048 0 lineto
2048 384 lineto
1900 154 1679 45 conicto
1458 -64 1138 -64 conicto
733 -64 494 162 conicto
256 389 256 769 conicto
256 1213 555 1438 conicto
854 1664 1448 1664 conicto
2048 1664 lineto
2048 1712 lineto
2048 2025 1851 2196 conicto
1655 2368 1300 2368 conicto
1074 2368 860 2320 conicto
646 2272 448 2176 conicto
448 2560 lineto
687 2656 912 2704 conicto
1138 2752 1351 2752 conicto
1927 2752 2211 2444 conicto
2496 2137 2496 1513 conicto
end_ol grestore 
gsave 17.329707 12.350000 translate 0.035278 -0.035278 scale
start_ol
448 3712 moveto
896 3712 lineto
896 0 lineto
448 0 lineto
448 3712 lineto
end_ol grestore 
gsave 17.507036 12.350000 translate 0.035278 -0.035278 scale
start_ol
448 2688 moveto
896 2688 lineto
896 0 lineto
448 0 lineto
448 2688 lineto
448 3712 moveto
896 3712 lineto
896 3136 lineto
448 3136 lineto
448 3712 lineto
end_ol grestore 
gsave 17.684365 12.350000 translate 0.035278 -0.035278 scale
start_ol
2176 2304 moveto
2176 3712 lineto
2624 3712 lineto
2624 0 lineto
2176 0 lineto
2176 384 lineto
2040 157 1832 46 conicto
1624 -64 1332 -64 conicto
855 -64 555 324 conicto
256 712 256 1344 conicto
256 1976 555 2364 conicto
855 2752 1332 2752 conicto
1624 2752 1832 2641 conicto
2040 2531 2176 2304 conicto
704 1344 moveto
704 865 900 592 conicto
1096 320 1439 320 conicto
1782 320 1979 592 conicto
2176 865 2176 1344 conicto
2176 1823 1979 2095 conicto
1782 2368 1439 2368 conicto
1096 2368 900 2095 conicto
704 1823 704 1344 conicto
end_ol grestore 
gsave 18.091484 12.350000 translate 0.035278 -0.035278 scale
start_ol
1890 3200 moveto
1375 3200 1071 2813 conicto
768 2426 768 1759 conicto
768 1094 1071 707 conicto
1375 320 1890 320 conicto
2406 320 2707 707 conicto
3008 1094 3008 1759 conicto
3008 2426 2707 2813 conicto
2406 3200 1890 3200 conicto
1890 3584 moveto
2632 3584 3076 3088 conicto
3520 2593 3520 1759 conicto
3520 927 3076 431 conicto
2632 -64 1890 -64 conicto
1146 -64 701 430 conicto
256 925 256 1759 conicto
256 2593 701 3088 conicto
1146 3584 1890 3584 conicto
end_ol grestore 
gsave 18.596011 12.350000 translate 0.035278 -0.035278 scale
start_ol
896 384 moveto
896 -1024 lineto
448 -1024 lineto
448 2688 lineto
896 2688 lineto
896 2304 lineto
1032 2531 1240 2641 conicto
1448 2752 1737 2752 conicto
2217 2752 2516 2364 conicto
2816 1976 2816 1344 conicto
2816 712 2516 324 conicto
2217 -64 1737 -64 conicto
1448 -64 1240 46 conicto
1032 157 896 384 conicto
2368 1344 moveto
2368 1823 2171 2095 conicto
1975 2368 1632 2368 conicto
1289 2368 1092 2095 conicto
896 1823 896 1344 conicto
896 865 1092 592 conicto
1289 320 1632 320 conicto
1975 320 2171 592 conicto
2368 865 2368 1344 conicto
end_ol grestore 
gsave 19.003131 12.350000 translate 0.035278 -0.035278 scale
start_ol
896 3456 moveto
896 2688 lineto
1792 2688 lineto
1792 2368 lineto
896 2368 lineto
896 902 lineto
896 572 984 478 conicto
1073 384 1345 384 conicto
1792 384 lineto
1792 0 lineto
1345 0 lineto
836 0 642 194 conicto
448 389 448 902 conicto
448 2368 lineto
128 2368 lineto
128 2688 lineto
448 2688 lineto
448 3456 lineto
896 3456 lineto
end_ol grestore 
gsave 19.252897 12.350000 translate 0.035278 -0.035278 scale
start_ol
448 2688 moveto
896 2688 lineto
896 0 lineto
448 0 lineto
448 2688 lineto
448 3712 moveto
896 3712 lineto
896 3136 lineto
448 3136 lineto
448 3712 lineto
end_ol grestore 
gsave 19.430226 12.350000 translate 0.035278 -0.035278 scale
start_ol
1473 2368 moveto
1117 2368 910 2094 conicto
704 1820 704 1344 conicto
704 868 909 594 conicto
1115 320 1473 320 conicto
1827 320 2033 595 conicto
2240 870 2240 1344 conicto
2240 1816 2033 2092 conicto
1827 2368 1473 2368 conicto
1472 2752 moveto
2040 2752 2364 2378 conicto
2688 2005 2688 1344 conicto
2688 685 2364 310 conicto
2040 -64 1472 -64 conicto
902 -64 579 310 conicto
256 685 256 1344 conicto
256 2005 579 2378 conicto
902 2752 1472 2752 conicto
end_ol grestore 
gsave 19.822355 12.350000 translate 0.035278 -0.035278 scale
start_ol
2688 1646 moveto
2688 0 lineto
2240 0 lineto
2240 1632 lineto
2240 2001 2093 2184 conicto
1947 2368 1654 2368 conicto
1302 2368 1099 2146 conicto
896 1925 896 1542 conicto
896 0 lineto
448 0 lineto
448 2688 lineto
896 2688 lineto
896 2304 lineto
1053 2529 1266 2640 conicto
1479 2752 1757 2752 conicto
2217 2752 2452 2471 conicto
2688 2191 2688 1646 conicto
end_ol grestore 
gsave 20.226969 12.350000 translate 0.035278 -0.035278 scale
start_ol
2112 2560 moveto
2112 2176 lineto
1932 2272 1738 2320 conicto
1544 2368 1336 2368 conicto
1020 2368 862 2269 conicto
704 2170 704 1972 conicto
704 1821 814 1735 conicto
925 1649 1260 1571 conicto
1403 1538 lineto
1857 1438 2048 1255 conicto
2240 1072 2240 744 conicto
2240 371 1954 153 conicto
1668 -64 1167 -64 conicto
958 -64 732 -16 conicto
506 32 256 128 conicto
256 576 lineto
491 448 719 384 conicto
947 320 1170 320 conicto
1470 320 1631 425 conicto
1792 531 1792 722 conicto
1792 900 1678 994 conicto
1564 1089 1177 1177 conicto
1032 1212 lineto
621 1298 438 1476 conicto
256 1654 256 1964 conicto
256 2341 520 2546 conicto
784 2752 1269 2752 conicto
1509 2752 1721 2704 conicto
1933 2656 2112 2560 conicto
end_ol grestore 
0.100000 slw
[] 0 sd
1.000000 1.000000 1.000000 srgb
n 21.550000 18.800000 0.750000 0.750000 0 360 ellipse f
0.000000 0.000000 0.000000 srgb
n 21.550000 18.800000 0.750000 0.750000 0 360 ellipse cp s
n 21.550000 18.800000 0.500000 0.500000 0 360 ellipse f
0.100000 slw
0 slc
[] 0 sd
n 15.300000 16.000000 m 18.024800 16.000000 l 18.024800 18.800000 l 20.526854 18.800000 l s
0.100000 slw
[] 0 sd
0 slj
0 slc
n 20.138658 19.050000 m 20.638658 18.800000 l 20.138658 18.550000 l s
0.100000 slw
0 slc
[] 0 sd
n 28.200000 15.650000 m 25.275195 15.650000 l 25.275195 18.800000 l 22.573997 18.800000 l s
0.100000 slw
[] 0 sd
0 slj
0 slc
n 22.962194 18.550000 m 22.462194 18.800000 l 22.962194 19.050000 l s
showpage
